LAB6/q3/JKFLIPFLOP_tb.vcd
$date
	Wed Sep  4 14:26:42 2024
$end
$version
	Icarus Verilog
$end
$timescale
	1ns
$end
$scope module jkff_tb $end
$var wire 1 ! q $end
$var reg 1 " clk $end
$var reg 1 # j $end
$var reg 1 $ k $end
$var reg 1 % reset $end
$scope module jf $end
$var wire 1 " clk $end
$var wire 1 # j $end
$var wire 1 $ k $end
$var wire 1 % reset $end
$var reg 1 ! q $end
$upscope $end
$upscope $end
$enddefinitions $end
#0
$dumpvars
1%
0$
0#
0"
0!
$end
#5
1"
0%
#10
0"
#15
1!
1"
1#
#20
0"
#25
1"
#30
0"
#35
0!
1"
1$
0#
#40
0"
#45
1"
#50
0"
#55
1"
#60
0"
#65
1!
1"
1#
#70
0"
#75
0!
1"
#80
0"
#85
1!
1"
#90
0"
#95
0!
1"
#100
0"
#105
1!
1"
