LAB5/Q3/orgatefinal_tb.vcd
$date
	Mon Sep  2 10:39:20 2024
$end
$version
	Icarus Verilog
$end
$timescale
	1ns
$end
$scope module orgatefinal_tb $end
$var wire 1 ! f $end
$var reg 4 " in [3:0] $end
$scope module ogf $end
$var wire 1 ! f $end
$var wire 4 # in [3:0] $end
$var wire 16 $ o [15:0] $end
$scope module dg $end
$var wire 4 % i [3:0] $end
$var reg 16 & o [15:0] $end
$upscope $end
$upscope $end
$upscope $end
$enddefinitions $end
#0
$dumpvars
b1 &
b0 %
b1 $
b0 #
b0 "
0!
$end
#20
b10 $
b10 &
b1 "
b1 #
b1 %
#40
1!
b100 $
b100 &
b10 "
b10 #
b10 %
#60
b1000 $
b1000 &
b11 "
b11 #
b11 %
#80
b10000 $
b10000 &
b100 "
b100 #
b100 %
#100
b100000 $
b100000 &
b101 "
b101 #
b101 %
#120
b1000000 $
b1000000 &
b110 "
b110 #
b110 %
#140
b10000000 $
b10000000 &
b111 "
b111 #
b111 %
#160
0!
b100000000 $
b100000000 &
b1000 "
b1000 #
b1000 %
#180
b1000000000 $
b1000000000 &
b1001 "
b1001 #
b1001 %
#200
1!
b10000000000 $
b10000000000 &
b1010 "
b1010 #
b1010 %
#220
b100000000000 $
b100000000000 &
b1011 "
b1011 #
b1011 %
#240
b1000000000000 $
b1000000000000 &
b1100 "
b1100 #
b1100 %
#260
0!
b10000000000000 $
b10000000000000 &
b1101 "
b1101 #
b1101 %
#280
b100000000000000 $
b100000000000000 &
b1110 "
b1110 #
b1110 %
#300
1!
b1000000000000000 $
b1000000000000000 &
b1111 "
b1111 #
b1111 %
